{"name":"Servicios Rest REQRES","id":"servicios-rest-con-serenity;servicios-rest-reqres","testSteps":[{"number":1,"description":"Given que me encuentro con la uri de REQRES","duration":190,"startTime":"2024-07-03T10:36:44.207-05:00[America/Bogota]","result":"SUCCESS","precondition":false,"level":0},{"number":2,"description":"When realice el crud de los servicios","duration":8876,"startTime":"2024-07-03T10:36:44.401-05:00[America/Bogota]","result":"SUCCESS","precondition":false,"level":0,"children":[{"number":3,"description":" get rest","duration":8726,"startTime":"2024-07-03T10:36:44.548-05:00[America/Bogota]","result":"SUCCESS","precondition":false,"level":1,"children":[{"number":4,"description":" executes a GET on the resource api/users?page\u003d2","duration":8646,"startTime":"2024-07-03T10:36:44.624-05:00[America/Bogota]","result":"SUCCESS","precondition":false,"level":2,"children":[{"number":5,"description":"GET https://reqres.in/api/users?page\u003d2\r","duration":0,"startTime":"2024-07-03T10:36:53.270-05:00[America/Bogota]","result":"SUCCESS","restQuery":{"method":"GET","path":"https://reqres.in/api/users?page\u003d2\r","content":"\r","contentType":"application/json","requestHeaders":"Accept\u003d*/*\r\n\t\t\t\tContent-Type\u003dapplication/json; charset\u003dUTF-8\r","requestCookies":"\r","responseHeaders":"Date: Wed, 03 Jul 2024 15:36:53 GMT\r\nContent-Type: application/json; charset\u003dutf-8\r\nTransfer-Encoding: chunked\r\nConnection: keep-alive\r\nReport-To: {\"group\":\"heroku-nel\",\"max_age\":3600,\"endpoints\":[{\"url\":\"https://nel.heroku.com/reports?ts\u003d1720016034\u0026sid\u003dc4c9725f-1ab0-44d8-820f-430df2718e11\u0026s\u003dICWib0rreNk2Nmyvnc7IvdngmSwBNE9FCtUT8%2BOTKZc%3D\"}]}\r\nReporting-Endpoints: heroku-nel\u003dhttps://nel.heroku.com/reports?ts\u003d1720016034\u0026sid\u003dc4c9725f-1ab0-44d8-820f-430df2718e11\u0026s\u003dICWib0rreNk2Nmyvnc7IvdngmSwBNE9FCtUT8%2BOTKZc%3D\r\nNel: {\"report_to\":\"heroku-nel\",\"max_age\":3600,\"success_fraction\":0.005,\"failure_fraction\":0.05,\"response_headers\":[\"Via\"]}\r\nX-Powered-By: Express\r\nAccess-Control-Allow-Origin: *\r\nEtag: W/\"406-ut0vzoCuidvyMf8arZpMpJ6ZRDw\"\r\nVia: 1.1 vegur\r\nCache-Control: max-age\u003d14400\r\nCF-Cache-Status: HIT\r\nAge: 4979\r\nVary: Accept-Encoding\r\nServer: cloudflare\r\nCF-RAY: 89d7f4243ef767d5-MIA\r\nContent-Encoding: gzip\r","responseCookies":"\r","responseBody":"{\n    \"page\": 2,\n    \"per_page\": 6,\n    \"total\": 12,\n    \"total_pages\": 2,\n    \"data\": [\n        {\n            \"id\": 7,\n            \"email\": \"michael.lawson@reqres.in\",\n            \"first_name\": \"Michael\",\n            \"last_name\": \"Lawson\",\n            \"avatar\": \"https://reqres.in/img/faces/7-image.jpg\"\n        },\n        {\n            \"id\": 8,\n            \"email\": \"lindsay.ferguson@reqres.in\",\n            \"first_name\": \"Lindsay\",\n            \"last_name\": \"Ferguson\",\n            \"avatar\": \"https://reqres.in/img/faces/8-image.jpg\"\n        },\n        {\n            \"id\": 9,\n            \"email\": \"tobias.funke@reqres.in\",\n            \"first_name\": \"Tobias\",\n            \"last_name\": \"Funke\",\n            \"avatar\": \"https://reqres.in/img/faces/9-image.jpg\"\n        },\n        {\n            \"id\": 10,\n            \"email\": \"byron.fields@reqres.in\",\n            \"first_name\": \"Byron\",\n            \"last_name\": \"Fields\",\n            \"avatar\": \"https://reqres.in/img/faces/10-image.jpg\"\n        },\n        {\n            \"id\": 11,\n            \"email\": \"george.edwards@reqres.in\",\n            \"first_name\": \"George\",\n            \"last_name\": \"Edwards\",\n            \"avatar\": \"https://reqres.in/img/faces/11-image.jpg\"\n        },\n        {\n            \"id\": 12,\n            \"email\": \"rachel.howell@reqres.in\",\n            \"first_name\": \"Rachel\",\n            \"last_name\": \"Howell\",\n            \"avatar\": \"https://reqres.in/img/faces/12-image.jpg\"\n        }\n    ],\n    \"support\": {\n        \"url\": \"https://reqres.in/#support-heading\",\n        \"text\": \"To keep ReqRes free, contributions towards server costs are appreciated!\"\n    }\n}","statusCode":200},"precondition":false,"level":3}]}]}]},{"number":6,"description":"Then validare que el codigo de estado del servicio final sea 200","duration":144,"startTime":"2024-07-03T10:36:53.279-05:00[America/Bogota]","result":"SUCCESS","precondition":false,"level":0,"children":[{"number":7,"description":"Then codigo estado","duration":6,"startTime":"2024-07-03T10:36:53.415-05:00[America/Bogota]","result":"SUCCESS","precondition":false,"level":1}]}],"userStory":{"id":"servicios-rest-con-serenity","storyName":"Servicios Rest con Serenity","path":"src/test/resources/features/PetStoreRest.feature","type":"feature"},"featureTag":{"name":"Features/Servicios Rest con Serenity","type":"feature","displayName":"Features/Servicios Rest con Serenity"},"title":"Servicios Rest REQRES","tags":[{"name":"Servicios Rest con Serenity","type":"feature","displayName":"Servicios Rest con Serenity"}],"startTime":"2024-07-03T10:36:44.018-05:00[America/Bogota]","duration":9406,"projectKey":"","isManualTestingUpToDate":false,"manual":false,"testSource":"Cucumber","actors":[{"name":"","can":["browse the web","call an API at https://reqres.in/"]}],"result":"SUCCESS"}